{"href":"https://api.spotify.com/v1/me/tracks?offset=0&limit=10","items":[{"added_at":"2019-03-15T05:55:09Z","track":{"album":{"album_type":"album","artists":[{"external_urls":{"spotify":"https://open.spotify.com/artist/20JZFwl6HVl6yg8a4H3ZqK"},"href":"https://api.spotify.com/v1/artists/20JZFwl6HVl6yg8a4H3ZqK","id":"20JZFwl6HVl6yg8a4H3ZqK","name":"Panic! At The Disco","type":"artist","uri":"spotify:artist:20JZFwl6HVl6yg8a4H3ZqK"}],"available_markets":["AD","AE","AR","AT","AU","BE","BG","BH","BO","BR","CA","CH","CL","CO","CR","CY","CZ","DE","DK","DO","DZ","EC","EE","EG","ES","FI","FR","GB","GR","GT","HK","HN","HU","ID","IE","IL","IS","IT","JO","JP","KW","LB","LI","LT","LU","LV","MA","MC","MT","MX","MY","NI","NL","NO","NZ","OM","PA","PE","PH","PL","PS","PT","PY","QA","RO","SA","SE","SG","SK","SV","TH","TN","TR","TW","US","UY","VN","ZA"],"external_urls":{"spotify":"https://open.spotify.com/album/6twKQ0EsUJHVlAr6XBylrj"},"href":"https://api.spotify.com/v1/albums/6twKQ0EsUJHVlAr6XBylrj","id":"6twKQ0EsUJHVlAr6XBylrj","images":[{"height":640,"url":"https://i.scdn.co/image/ab67616d0000b27323152d9337d6c57b116ed13a","width":640},{"height":300,"url":"https://i.scdn.co/image/ab67616d00001e0223152d9337d6c57b116ed13a","width":300},{"height":64,"url":"https://i.scdn.co/image/ab67616d0000485123152d9337d6c57b116ed13a","width":64}],"name":"Death of a Bachelor","release_date":"2016-01-15","release_date_precision":"day","total_tracks":11,"type":"album","uri":"spotify:album:6twKQ0EsUJHVlAr6XBylrj"},"artists":[{"external_urls":{"spotify":"https://open.spotify.com/artist/20JZFwl6HVl6yg8a4H3ZqK"},"href":"https://api.spotify.com/v1/artists/20JZFwl6HVl6yg8a4H3ZqK","id":"20JZFwl6HVl6yg8a4H3ZqK","name":"Panic! At The Disco","type":"artist","uri":"spotify:artist:20JZFwl6HVl6yg8a4H3ZqK"}],"available_markets":["AD","AE","AR","AT","AU","BE","BG","BH","BO","BR","CA","CH","CL","CO","CR","CY","CZ","DE","DK","DO","DZ","EC","EE","EG","ES","FI","FR","GB","GR","GT","HK","HN","HU","ID","IE","IL","IS","IT","JO","JP","KW","LB","LI","LT","LU","LV","MA","MC","MT","MX","MY","NI","NL","NO","NZ","OM","PA","PE","PH","PL","PS","PT","PY","QA","RO","SA","SE","SG","SK","SV","TH","TN","TR","TW","US","UY","VN","ZA"],"disc_number":1,"duration_ms":203506,"explicit":false,"external_ids":{"isrc":"USAT21503696"},"external_urls":{"spotify":"https://open.spotify.com/track/1BECwm5qkaBwlbfo4kpYx8"},"href":"https://api.spotify.com/v1/tracks/1BECwm5qkaBwlbfo4kpYx8","id":"1BECwm5qkaBwlbfo4kpYx8","is_local":false,"name":"Death of a Bachelor","popularity":75,"preview_url":"https://p.scdn.co/mp3-preview/8d508570fcb3ac263a11dd6d510fc251b7581917?cid=774b29d4f13844c495f206cafdad9c86","track_number":5,"type":"track","uri":"spotify:track:1BECwm5qkaBwlbfo4kpYx8"}},{"added_at":"2018-05-28T04:28:55Z","track":{"album":{"album_type":"single","artists":[{"external_urls":{"spotify":"https://open.spotify.com/artist/72exXDRgILXh6TvkdNL3fj"},"href":"https://api.spotify.com/v1/artists/72exXDRgILXh6TvkdNL3fj","id":"72exXDRgILXh6TvkdNL3fj","name":"Kadesh Flow","type":"artist","uri":"spotify:artist:72exXDRgILXh6TvkdNL3fj"}],"available_markets":[],"external_urls":{"spotify":"https://open.spotify.com/album/2PmvQ3C9izHZKJGhcifZxt"},"href":"https://api.spotify.com/v1/albums/2PmvQ3C9izHZKJGhcifZxt","id":"2PmvQ3C9izHZKJGhcifZxt","images":[{"height":640,"url":"https://i.scdn.co/image/ab67616d0000b273070135e505bd0db2dc211835","width":640},{"height":300,"url":"https://i.scdn.co/image/ab67616d00001e02070135e505bd0db2dc211835","width":300},{"height":64,"url":"https://i.scdn.co/image/ab67616d00004851070135e505bd0db2dc211835","width":64}],"name":"Ultra Instinct","release_date":"2018-04-20","release_date_precision":"day","total_tracks":1,"type":"album","uri":"spotify:album:2PmvQ3C9izHZKJGhcifZxt"},"artists":[{"external_urls":{"spotify":"https://open.spotify.com/artist/72exXDRgILXh6TvkdNL3fj"},"href":"https://api.spotify.com/v1/artists/72exXDRgILXh6TvkdNL3fj","id":"72exXDRgILXh6TvkdNL3fj","name":"Kadesh Flow","type":"artist","uri":"spotify:artist:72exXDRgILXh6TvkdNL3fj"},{"external_urls":{"spotify":"https://open.spotify.com/artist/7KIAmI92nqE3irAu9OkBCf"},"href":"https://api.spotify.com/v1/artists/7KIAmI92nqE3irAu9OkBCf","id":"7KIAmI92nqE3irAu9OkBCf","name":"Double4Anime","type":"artist","uri":"spotify:artist:7KIAmI92nqE3irAu9OkBCf"}],"available_markets":[],"disc_number":1,"duration_ms":199601,"explicit":true,"external_ids":{"isrc":"QM4DW1876554"},"external_urls":{"spotify":"https://open.spotify.com/track/3lmr51CJnec8umUzHf5ixd"},"href":"https://api.spotify.com/v1/tracks/3lmr51CJnec8umUzHf5ixd","id":"3lmr51CJnec8umUzHf5ixd","is_local":false,"name":"Ultra Instinct","popularity":0,"preview_url":null,"track_number":1,"type":"track","uri":"spotify:track:3lmr51CJnec8umUzHf5ixd"}},{"added_at":"2017-04-13T18:42:13Z","track":{"album":{"album_type":"album","artists":[{"external_urls":{"spotify":"https://open.spotify.com/artist/6eUKZXaKkcviH0Ku9w2n3V"},"href":"https://api.spotify.com/v1/artists/6eUKZXaKkcviH0Ku9w2n3V","id":"6eUKZXaKkcviH0Ku9w2n3V","name":"Ed Sheeran","type":"artist","uri":"spotify:artist:6eUKZXaKkcviH0Ku9w2n3V"}],"available_markets":["AD","AE","AR","AT","AU","BE","BG","BH","BO","BR","CA","CH","CL","CO","CR","CY","CZ","DE","DK","DO","DZ","EC","EE","EG","ES","FI","FR","GB","GR","GT","HK","HN","HU","ID","IE","IL","IS","IT","JO","JP","KW","LB","LI","LT","LU","LV","MA","MC","MT","MX","MY","NI","NL","NO","NZ","OM","PA","PE","PH","PL","PS","PT","PY","QA","RO","SA","SE","SG","SK","SV","TH","TN","TR","TW","US","UY","VN","ZA"],"external_urls":{"spotify":"https://open.spotify.com/album/3T4tUhGYeRNVUGevb0wThu"},"href":"https://api.spotify.com/v1/albums/3T4tUhGYeRNVUGevb0wThu","id":"3T4tUhGYeRNVUGevb0wThu","images":[{"height":640,"url":"https://i.scdn.co/image/ab67616d0000b273ba5db46f4b838ef6027e6f96","width":640},{"height":300,"url":"https://i.scdn.co/image/ab67616d00001e02ba5db46f4b838ef6027e6f96","width":300},{"height":64,"url":"https://i.scdn.co/image/ab67616d00004851ba5db46f4b838ef6027e6f96","width":64}],"name":"÷ (Deluxe)","release_date":"2017-03-03","release_date_precision":"day","total_tracks":16,"type":"album","uri":"spotify:album:3T4tUhGYeRNVUGevb0wThu"},"artists":[{"external_urls":{"spotify":"https://open.spotify.com/artist/6eUKZXaKkcviH0Ku9w2n3V"},"href":"https://api.spotify.com/v1/artists/6eUKZXaKkcviH0Ku9w2n3V","id":"6eUKZXaKkcviH0Ku9w2n3V","name":"Ed Sheeran","type":"artist","uri":"spotify:artist:6eUKZXaKkcviH0Ku9w2n3V"}],"available_markets":["AD","AE","AR","AT","AU","BE","BG","BH","BO","BR","CA","CH","CL","CO","CR","CY","CZ","DE","DK","DO","DZ","EC","EE","EG","ES","FI","FR","GB","GR","GT","HK","HN","HU","ID","IE","IL","IS","IT","JO","JP","KW","LB","LI","LT","LU","LV","MA","MC","MT","MX","MY","NI","NL","NO","NZ","OM","PA","PE","PH","PL","PS","PT","PY","QA","RO","SA","SE","SG","SK","SV","TH","TN","TR","TW","US","UY","VN","ZA"],"disc_number":1,"duration_ms":263400,"explicit":false,"external_ids":{"isrc":"GBAHS1700024"},"external_urls":{"spotify":"https://open.spotify.com/track/0tgVpDi06FyKpA1z0VMD4v"},"href":"https://api.spotify.com/v1/tracks/0tgVpDi06FyKpA1z0VMD4v","id":"0tgVpDi06FyKpA1z0VMD4v","is_local":false,"name":"Perfect","popularity":87,"preview_url":"https://p.scdn.co/mp3-preview/9779493d90a47f29e4257aa45bc6146d1ee9cb26?cid=774b29d4f13844c495f206cafdad9c86","track_number":5,"type":"track","uri":"spotify:track:0tgVpDi06FyKpA1z0VMD4v"}},{"added_at":"2017-04-13T18:42:13Z","track":{"album":{"album_type":"album","artists":[{"external_urls":{"spotify":"https://open.spotify.com/artist/6eUKZXaKkcviH0Ku9w2n3V"},"href":"https://api.spotify.com/v1/artists/6eUKZXaKkcviH0Ku9w2n3V","id":"6eUKZXaKkcviH0Ku9w2n3V","name":"Ed Sheeran","type":"artist","uri":"spotify:artist:6eUKZXaKkcviH0Ku9w2n3V"}],"available_markets":["AD","AE","AR","AT","AU","BE","BG","BH","BO","BR","CA","CH","CL","CO","CR","CY","CZ","DE","DK","DO","DZ","EC","EE","EG","ES","FI","FR","GB","GR","GT","HK","HN","HU","ID","IE","IL","IS","IT","JO","JP","KW","LB","LI","LT","LU","LV","MA","MC","MT","MX","MY","NI","NL","NO","NZ","OM","PA","PE","PH","PL","PS","PT","PY","QA","RO","SA","SE","SG","SK","SV","TH","TN","TR","TW","US","UY","VN","ZA"],"external_urls":{"spotify":"https://open.spotify.com/album/3T4tUhGYeRNVUGevb0wThu"},"href":"https://api.spotify.com/v1/albums/3T4tUhGYeRNVUGevb0wThu","id":"3T4tUhGYeRNVUGevb0wThu","images":[{"height":640,"url":"https://i.scdn.co/image/ab67616d0000b273ba5db46f4b838ef6027e6f96","width":640},{"height":300,"url":"https://i.scdn.co/image/ab67616d00001e02ba5db46f4b838ef6027e6f96","width":300},{"height":64,"url":"https://i.scdn.co/image/ab67616d00004851ba5db46f4b838ef6027e6f96","width":64}],"name":"÷ (Deluxe)","release_date":"2017-03-03","release_date_precision":"day","total_tracks":16,"type":"album","uri":"spotify:album:3T4tUhGYeRNVUGevb0wThu"},"artists":[{"external_urls":{"spotify":"https://open.spotify.com/artist/6eUKZXaKkcviH0Ku9w2n3V"},"href":"https://api.spotify.com/v1/artists/6eUKZXaKkcviH0Ku9w2n3V","id":"6eUKZXaKkcviH0Ku9w2n3V","name":"Ed Sheeran","type":"artist","uri":"spotify:artist:6eUKZXaKkcviH0Ku9w2n3V"}],"available_markets":["AD","AE","AR","AT","AU","BE","BG","BH","BO","BR","CA","CH","CL","CO","CR","CY","CZ","DE","DK","DO","DZ","EC","EE","EG","ES","FI","FR","GB","GR","GT","HK","HN","HU","ID","IE","IL","IS","IT","JO","JP","KW","LB","LI","LT","LU","LV","MA","MC","MT","MX","MY","NI","NL","NO","NZ","OM","PA","PE","PH","PL","PS","PT","PY","QA","RO","SA","SE","SG","SK","SV","TH","TN","TR","TW","US","UY","VN","ZA"],"disc_number":1,"duration_ms":170826,"explicit":false,"external_ids":{"isrc":"GBAHS1700026"},"external_urls":{"spotify":"https://open.spotify.com/track/0afhq8XCExXpqazXczTSve"},"href":"https://api.spotify.com/v1/tracks/0afhq8XCExXpqazXczTSve","id":"0afhq8XCExXpqazXczTSve","is_local":false,"name":"Galway Girl","popularity":80,"preview_url":"https://p.scdn.co/mp3-preview/cec1fc40a0220f20d3b91dd28d8e1141ad5e7e25?cid=774b29d4f13844c495f206cafdad9c86","track_number":6,"type":"track","uri":"spotify:track:0afhq8XCExXpqazXczTSve"}},{"added_at":"2017-04-13T18:42:13Z","track":{"album":{"album_type":"album","artists":[{"external_urls":{"spotify":"https://open.spotify.com/artist/6eUKZXaKkcviH0Ku9w2n3V"},"href":"https://api.spotify.com/v1/artists/6eUKZXaKkcviH0Ku9w2n3V","id":"6eUKZXaKkcviH0Ku9w2n3V","name":"Ed Sheeran","type":"artist","uri":"spotify:artist:6eUKZXaKkcviH0Ku9w2n3V"}],"available_markets":["AD","AE","AR","AT","AU","BE","BG","BH","BO","BR","CA","CH","CL","CO","CR","CY","CZ","DE","DK","DO","DZ","EC","EE","EG","ES","FI","FR","GB","GR","GT","HK","HN","HU","ID","IE","IL","IS","IT","JO","JP","KW","LB","LI","LT","LU","LV","MA","MC","MT","MX","MY","NI","NL","NO","NZ","OM","PA","PE","PH","PL","PS","PT","PY","QA","RO","SA","SE","SG","SK","SV","TH","TN","TR","TW","US","UY","VN","ZA"],"external_urls":{"spotify":"https://open.spotify.com/album/3T4tUhGYeRNVUGevb0wThu"},"href":"https://api.spotify.com/v1/albums/3T4tUhGYeRNVUGevb0wThu","id":"3T4tUhGYeRNVUGevb0wThu","images":[{"height":640,"url":"https://i.scdn.co/image/ab67616d0000b273ba5db46f4b838ef6027e6f96","width":640},{"height":300,"url":"https://i.scdn.co/image/ab67616d00001e02ba5db46f4b838ef6027e6f96","width":300},{"height":64,"url":"https://i.scdn.co/image/ab67616d00004851ba5db46f4b838ef6027e6f96","width":64}],"name":"÷ (Deluxe)","release_date":"2017-03-03","release_date_precision":"day","total_tracks":16,"type":"album","uri":"spotify:album:3T4tUhGYeRNVUGevb0wThu"},"artists":[{"external_urls":{"spotify":"https://open.spotify.com/artist/6eUKZXaKkcviH0Ku9w2n3V"},"href":"https://api.spotify.com/v1/artists/6eUKZXaKkcviH0Ku9w2n3V","id":"6eUKZXaKkcviH0Ku9w2n3V","name":"Ed Sheeran","type":"artist","uri":"spotify:artist:6eUKZXaKkcviH0Ku9w2n3V"}],"available_markets":["AD","AE","AR","AT","AU","BE","BG","BH","BO","BR","CA","CH","CL","CO","CR","CY","CZ","DE","DK","DO","DZ","EC","EE","EG","ES","FI","FR","GB","GR","GT","HK","HN","HU","ID","IE","IL","IS","IT","JO","JP","KW","LB","LI","LT","LU","LV","MA","MC","MT","MX","MY","NI","NL","NO","NZ","OM","PA","PE","PH","PL","PS","PT","PY","QA","RO","SA","SE","SG","SK","SV","TH","TN","TR","TW","US","UY","VN","ZA"],"disc_number":1,"duration_ms":207520,"explicit":false,"external_ids":{"isrc":"GBAHS1700028"},"external_urls":{"spotify":"https://open.spotify.com/track/2RttW7RAu5nOAfq6YFvApB"},"href":"https://api.spotify.com/v1/tracks/2RttW7RAu5nOAfq6YFvApB","id":"2RttW7RAu5nOAfq6YFvApB","is_local":false,"name":"Happier","popularity":83,"preview_url":"https://p.scdn.co/mp3-preview/e2f5edb569c73916428ec0a2e0b56a9f777851dd?cid=774b29d4f13844c495f206cafdad9c86","track_number":7,"type":"track","uri":"spotify:track:2RttW7RAu5nOAfq6YFvApB"}},{"added_at":"2017-04-13T18:42:13Z","track":{"album":{"album_type":"album","artists":[{"external_urls":{"spotify":"https://open.spotify.com/artist/6eUKZXaKkcviH0Ku9w2n3V"},"href":"https://api.spotify.com/v1/artists/6eUKZXaKkcviH0Ku9w2n3V","id":"6eUKZXaKkcviH0Ku9w2n3V","name":"Ed Sheeran","type":"artist","uri":"spotify:artist:6eUKZXaKkcviH0Ku9w2n3V"}],"available_markets":["AD","AE","AR","AT","AU","BE","BG","BH","BO","BR","CA","CH","CL","CO","CR","CY","CZ","DE","DK","DO","DZ","EC","EE","EG","ES","FI","FR","GB","GR","GT","HK","HN","HU","ID","IE","IL","IS","IT","JO","JP","KW","LB","LI","LT","LU","LV","MA","MC","MT","MX","MY","NI","NL","NO","NZ","OM","PA","PE","PH","PL","PS","PT","PY","QA","RO","SA","SE","SG","SK","SV","TH","TN","TR","TW","US","UY","VN","ZA"],"external_urls":{"spotify":"https://open.spotify.com/album/3T4tUhGYeRNVUGevb0wThu"},"href":"https://api.spotify.com/v1/albums/3T4tUhGYeRNVUGevb0wThu","id":"3T4tUhGYeRNVUGevb0wThu","images":[{"height":640,"url":"https://i.scdn.co/image/ab67616d0000b273ba5db46f4b838ef6027e6f96","width":640},{"height":300,"url":"https://i.scdn.co/image/ab67616d00001e02ba5db46f4b838ef6027e6f96","width":300},{"height":64,"url":"https://i.scdn.co/image/ab67616d00004851ba5db46f4b838ef6027e6f96","width":64}],"name":"÷ (Deluxe)","release_date":"2017-03-03","release_date_precision":"day","total_tracks":16,"type":"album","uri":"spotify:album:3T4tUhGYeRNVUGevb0wThu"},"artists":[{"external_urls":{"spotify":"https://open.spotify.com/artist/6eUKZXaKkcviH0Ku9w2n3V"},"href":"https://api.spotify.com/v1/artists/6eUKZXaKkcviH0Ku9w2n3V","id":"6eUKZXaKkcviH0Ku9w2n3V","name":"Ed Sheeran","type":"artist","uri":"spotify:artist:6eUKZXaKkcviH0Ku9w2n3V"}],"available_markets":["AD","AE","AR","AT","AU","BE","BG","BH","BO","BR","CA","CH","CL","CO","CR","CY","CZ","DE","DK","DO","DZ","EC","EE","EG","ES","FI","FR","GB","GR","GT","HK","HN","HU","ID","IE","IL","IS","IT","JO","JP","KW","LB","LI","LT","LU","LV","MA","MC","MT","MX","MY","NI","NL","NO","NZ","OM","PA","PE","PH","PL","PS","PT","PY","QA","RO","SA","SE","SG","SK","SV","TH","TN","TR","TW","US","UY","VN","ZA"],"disc_number":1,"duration_ms":248413,"explicit":false,"external_ids":{"isrc":"GBAHS1700032"},"external_urls":{"spotify":"https://open.spotify.com/track/2dfHh7ECGxfNqZTQno09Vk"},"href":"https://api.spotify.com/v1/tracks/2dfHh7ECGxfNqZTQno09Vk","id":"2dfHh7ECGxfNqZTQno09Vk","is_local":false,"name":"Hearts Don't Break Around Here","popularity":70,"preview_url":"https://p.scdn.co/mp3-preview/b24db7d4d944f7585f82a7be8f113d25882c4e4d?cid=774b29d4f13844c495f206cafdad9c86","track_number":9,"type":"track","uri":"spotify:track:2dfHh7ECGxfNqZTQno09Vk"}},{"added_at":"2017-04-13T18:42:13Z","track":{"album":{"album_type":"album","artists":[{"external_urls":{"spotify":"https://open.spotify.com/artist/6eUKZXaKkcviH0Ku9w2n3V"},"href":"https://api.spotify.com/v1/artists/6eUKZXaKkcviH0Ku9w2n3V","id":"6eUKZXaKkcviH0Ku9w2n3V","name":"Ed Sheeran","type":"artist","uri":"spotify:artist:6eUKZXaKkcviH0Ku9w2n3V"}],"available_markets":["AD","AE","AR","AT","AU","BE","BG","BH","BO","BR","CA","CH","CL","CO","CR","CY","CZ","DE","DK","DO","DZ","EC","EE","EG","ES","FI","FR","GB","GR","GT","HK","HN","HU","ID","IE","IL","IS","IT","JO","JP","KW","LB","LI","LT","LU","LV","MA","MC","MT","MX","MY","NI","NL","NO","NZ","OM","PA","PE","PH","PL","PS","PT","PY","QA","RO","SA","SE","SG","SK","SV","TH","TN","TR","TW","US","UY","VN","ZA"],"external_urls":{"spotify":"https://open.spotify.com/album/3T4tUhGYeRNVUGevb0wThu"},"href":"https://api.spotify.com/v1/albums/3T4tUhGYeRNVUGevb0wThu","id":"3T4tUhGYeRNVUGevb0wThu","images":[{"height":640,"url":"https://i.scdn.co/image/ab67616d0000b273ba5db46f4b838ef6027e6f96","width":640},{"height":300,"url":"https://i.scdn.co/image/ab67616d00001e02ba5db46f4b838ef6027e6f96","width":300},{"height":64,"url":"https://i.scdn.co/image/ab67616d00004851ba5db46f4b838ef6027e6f96","width":64}],"name":"÷ (Deluxe)","release_date":"2017-03-03","release_date_precision":"day","total_tracks":16,"type":"album","uri":"spotify:album:3T4tUhGYeRNVUGevb0wThu"},"artists":[{"external_urls":{"spotify":"https://open.spotify.com/artist/6eUKZXaKkcviH0Ku9w2n3V"},"href":"https://api.spotify.com/v1/artists/6eUKZXaKkcviH0Ku9w2n3V","id":"6eUKZXaKkcviH0Ku9w2n3V","name":"Ed Sheeran","type":"artist","uri":"spotify:artist:6eUKZXaKkcviH0Ku9w2n3V"}],"available_markets":["AD","AE","AR","AT","AU","BE","BG","BH","BO","BR","CA","CH","CL","CO","CR","CY","CZ","DE","DK","DO","DZ","EC","EE","EG","ES","FI","FR","GB","GR","GT","HK","HN","HU","ID","IE","IL","IS","IT","JO","JP","KW","LB","LI","LT","LU","LV","MA","MC","MT","MX","MY","NI","NL","NO","NZ","OM","PA","PE","PH","PL","PS","PT","PY","QA","RO","SA","SE","SG","SK","SV","TH","TN","TR","TW","US","UY","VN","ZA"],"disc_number":1,"duration_ms":237333,"explicit":false,"external_ids":{"isrc":"GBAHS1700036"},"external_urls":{"spotify":"https://open.spotify.com/track/2pJZ1v8HezrAoZ0Fhzby92"},"href":"https://api.spotify.com/v1/tracks/2pJZ1v8HezrAoZ0Fhzby92","id":"2pJZ1v8HezrAoZ0Fhzby92","is_local":false,"name":"What Do I Know?","popularity":72,"preview_url":"https://p.scdn.co/mp3-preview/bad41a580c7e5f886297528f7cf9003e5a316335?cid=774b29d4f13844c495f206cafdad9c86","track_number":10,"type":"track","uri":"spotify:track:2pJZ1v8HezrAoZ0Fhzby92"}},{"added_at":"2017-04-13T18:42:13Z","track":{"album":{"album_type":"album","artists":[{"external_urls":{"spotify":"https://open.spotify.com/artist/6eUKZXaKkcviH0Ku9w2n3V"},"href":"https://api.spotify.com/v1/artists/6eUKZXaKkcviH0Ku9w2n3V","id":"6eUKZXaKkcviH0Ku9w2n3V","name":"Ed Sheeran","type":"artist","uri":"spotify:artist:6eUKZXaKkcviH0Ku9w2n3V"}],"available_markets":["AD","AE","AR","AT","AU","BE","BG","BH","BO","BR","CA","CH","CL","CO","CR","CY","CZ","DE","DK","DO","DZ","EC","EE","EG","ES","FI","FR","GB","GR","GT","HK","HN","HU","ID","IE","IL","IS","IT","JO","JP","KW","LB","LI","LT","LU","LV","MA","MC","MT","MX","MY","NI","NL","NO","NZ","OM","PA","PE","PH","PL","PS","PT","PY","QA","RO","SA","SE","SG","SK","SV","TH","TN","TR","TW","US","UY","VN","ZA"],"external_urls":{"spotify":"https://open.spotify.com/album/3T4tUhGYeRNVUGevb0wThu"},"href":"https://api.spotify.com/v1/albums/3T4tUhGYeRNVUGevb0wThu","id":"3T4tUhGYeRNVUGevb0wThu","images":[{"height":640,"url":"https://i.scdn.co/image/ab67616d0000b273ba5db46f4b838ef6027e6f96","width":640},{"height":300,"url":"https://i.scdn.co/image/ab67616d00001e02ba5db46f4b838ef6027e6f96","width":300},{"height":64,"url":"https://i.scdn.co/image/ab67616d00004851ba5db46f4b838ef6027e6f96","width":64}],"name":"÷ (Deluxe)","release_date":"2017-03-03","release_date_precision":"day","total_tracks":16,"type":"album","uri":"spotify:album:3T4tUhGYeRNVUGevb0wThu"},"artists":[{"external_urls":{"spotify":"https://open.spotify.com/artist/6eUKZXaKkcviH0Ku9w2n3V"},"href":"https://api.spotify.com/v1/artists/6eUKZXaKkcviH0Ku9w2n3V","id":"6eUKZXaKkcviH0Ku9w2n3V","name":"Ed Sheeran","type":"artist","uri":"spotify:artist:6eUKZXaKkcviH0Ku9w2n3V"}],"available_markets":["AD","AE","AR","AT","AU","BE","BG","BH","BO","BR","CA","CH","CL","CO","CR","CY","CZ","DE","DK","DO","DZ","EC","EE","EG","ES","FI","FR","GB","GR","GT","HK","HN","HU","ID","IE","IL","IS","IT","JO","JP","KW","LB","LI","LT","LU","LV","MA","MC","MT","MX","MY","NI","NL","NO","NZ","OM","PA","PE","PH","PL","PS","PT","PY","QA","RO","SA","SE","SG","SK","SV","TH","TN","TR","TW","US","UY","VN","ZA"],"disc_number":1,"duration_ms":221106,"explicit":false,"external_ids":{"isrc":"GBAHS1700040"},"external_urls":{"spotify":"https://open.spotify.com/track/4VuS959DSpr82t3qBqCrWG"},"href":"https://api.spotify.com/v1/tracks/4VuS959DSpr82t3qBqCrWG","id":"4VuS959DSpr82t3qBqCrWG","is_local":false,"name":"Supermarket Flowers","popularity":78,"preview_url":"https://p.scdn.co/mp3-preview/44c5f2f0aba08060bb8f50273931a68e8eea7d34?cid=774b29d4f13844c495f206cafdad9c86","track_number":12,"type":"track","uri":"spotify:track:4VuS959DSpr82t3qBqCrWG"}},{"added_at":"2017-04-13T18:42:13Z","track":{"album":{"album_type":"album","artists":[{"external_urls":{"spotify":"https://open.spotify.com/artist/6eUKZXaKkcviH0Ku9w2n3V"},"href":"https://api.spotify.com/v1/artists/6eUKZXaKkcviH0Ku9w2n3V","id":"6eUKZXaKkcviH0Ku9w2n3V","name":"Ed Sheeran","type":"artist","uri":"spotify:artist:6eUKZXaKkcviH0Ku9w2n3V"}],"available_markets":["AD","AE","AR","AT","AU","BE","BG","BH","BO","BR","CA","CH","CL","CO","CR","CY","CZ","DE","DK","DO","DZ","EC","EE","EG","ES","FI","FR","GB","GR","GT","HK","HN","HU","ID","IE","IL","IS","IT","JO","JP","KW","LB","LI","LT","LU","LV","MA","MC","MT","MX","MY","NI","NL","NO","NZ","OM","PA","PE","PH","PL","PS","PT","PY","QA","RO","SA","SE","SG","SK","SV","TH","TN","TR","TW","US","UY","VN","ZA"],"external_urls":{"spotify":"https://open.spotify.com/album/3T4tUhGYeRNVUGevb0wThu"},"href":"https://api.spotify.com/v1/albums/3T4tUhGYeRNVUGevb0wThu","id":"3T4tUhGYeRNVUGevb0wThu","images":[{"height":640,"url":"https://i.scdn.co/image/ab67616d0000b273ba5db46f4b838ef6027e6f96","width":640},{"height":300,"url":"https://i.scdn.co/image/ab67616d00001e02ba5db46f4b838ef6027e6f96","width":300},{"height":64,"url":"https://i.scdn.co/image/ab67616d00004851ba5db46f4b838ef6027e6f96","width":64}],"name":"÷ (Deluxe)","release_date":"2017-03-03","release_date_precision":"day","total_tracks":16,"type":"album","uri":"spotify:album:3T4tUhGYeRNVUGevb0wThu"},"artists":[{"external_urls":{"spotify":"https://open.spotify.com/artist/6eUKZXaKkcviH0Ku9w2n3V"},"href":"https://api.spotify.com/v1/artists/6eUKZXaKkcviH0Ku9w2n3V","id":"6eUKZXaKkcviH0Ku9w2n3V","name":"Ed Sheeran","type":"artist","uri":"spotify:artist:6eUKZXaKkcviH0Ku9w2n3V"}],"available_markets":["AD","AE","AR","AT","AU","BE","BG","BH","BO","BR","CA","CH","CL","CO","CR","CY","CZ","DE","DK","DO","DZ","EC","EE","EG","ES","FI","FR","GB","GR","GT","HK","HN","HU","ID","IE","IL","IS","IT","JO","JP","KW","LB","LI","LT","LU","LV","MA","MC","MT","MX","MY","NI","NL","NO","NZ","OM","PA","PE","PH","PL","PS","PT","PY","QA","RO","SA","SE","SG","SK","SV","TH","TN","TR","TW","US","UY","VN","ZA"],"disc_number":1,"duration_ms":191146,"explicit":false,"external_ids":{"isrc":"GBAHS1700042"},"external_urls":{"spotify":"https://open.spotify.com/track/3Lfiu5sZ4M4B6JaKMBc0FU"},"href":"https://api.spotify.com/v1/tracks/3Lfiu5sZ4M4B6JaKMBc0FU","id":"3Lfiu5sZ4M4B6JaKMBc0FU","is_local":false,"name":"Barcelona","popularity":70,"preview_url":"https://p.scdn.co/mp3-preview/61d235aabd27bdf44b0043c043de21faf040cf24?cid=774b29d4f13844c495f206cafdad9c86","track_number":13,"type":"track","uri":"spotify:track:3Lfiu5sZ4M4B6JaKMBc0FU"}},{"added_at":"2017-04-13T18:42:13Z","track":{"album":{"album_type":"album","artists":[{"external_urls":{"spotify":"https://open.spotify.com/artist/6eUKZXaKkcviH0Ku9w2n3V"},"href":"https://api.spotify.com/v1/artists/6eUKZXaKkcviH0Ku9w2n3V","id":"6eUKZXaKkcviH0Ku9w2n3V","name":"Ed Sheeran","type":"artist","uri":"spotify:artist:6eUKZXaKkcviH0Ku9w2n3V"}],"available_markets":["AD","AE","AR","AT","AU","BE","BG","BH","BO","BR","CA","CH","CL","CO","CR","CY","CZ","DE","DK","DO","DZ","EC","EE","EG","ES","FI","FR","GB","GR","GT","HK","HN","HU","ID","IE","IL","IS","IT","JO","JP","KW","LB","LI","LT","LU","LV","MA","MC","MT","MX","MY","NI","NL","NO","NZ","OM","PA","PE","PH","PL","PS","PT","PY","QA","RO","SA","SE","SG","SK","SV","TH","TN","TR","TW","US","UY","VN","ZA"],"external_urls":{"spotify":"https://open.spotify.com/album/3T4tUhGYeRNVUGevb0wThu"},"href":"https://api.spotify.com/v1/albums/3T4tUhGYeRNVUGevb0wThu","id":"3T4tUhGYeRNVUGevb0wThu","images":[{"height":640,"url":"https://i.scdn.co/image/ab67616d0000b273ba5db46f4b838ef6027e6f96","width":640},{"height":300,"url":"https://i.scdn.co/image/ab67616d00001e02ba5db46f4b838ef6027e6f96","width":300},{"height":64,"url":"https://i.scdn.co/image/ab67616d00004851ba5db46f4b838ef6027e6f96","width":64}],"name":"÷ (Deluxe)","release_date":"2017-03-03","release_date_precision":"day","total_tracks":16,"type":"album","uri":"spotify:album:3T4tUhGYeRNVUGevb0wThu"},"artists":[{"external_urls":{"spotify":"https://open.spotify.com/artist/6eUKZXaKkcviH0Ku9w2n3V"},"href":"https://api.spotify.com/v1/artists/6eUKZXaKkcviH0Ku9w2n3V","id":"6eUKZXaKkcviH0Ku9w2n3V","name":"Ed Sheeran","type":"artist","uri":"spotify:artist:6eUKZXaKkcviH0Ku9w2n3V"}],"available_markets":["AD","AE","AR","AT","AU","BE","BG","BH","BO","BR","CA","CH","CL","CO","CR","CY","CZ","DE","DK","DO","DZ","EC","EE","EG","ES","FI","FR","GB","GR","GT","HK","HN","HU","ID","IE","IL","IS","IT","JO","JP","KW","LB","LI","LT","LU","LV","MA","MC","MT","MX","MY","NI","NL","NO","NZ","OM","PA","PE","PH","PL","PS","PT","PY","QA","RO","SA","SE","SG","SK","SV","TH","TN","TR","TW","US","UY","VN","ZA"],"disc_number":1,"duration_ms":179786,"explicit":false,"external_ids":{"isrc":"GBAHS1700046"},"external_urls":{"spotify":"https://open.spotify.com/track/35QZaWQRkmnAVqBF1TLCxQ"},"href":"https://api.spotify.com/v1/tracks/35QZaWQRkmnAVqBF1TLCxQ","id":"35QZaWQRkmnAVqBF1TLCxQ","is_local":false,"name":"Nancy Mulligan","popularity":69,"preview_url":"https://p.scdn.co/mp3-preview/96644ed062a08f54434611cf88114de8c6d57177?cid=774b29d4f13844c495f206cafdad9c86","track_number":15,"type":"track","uri":"spotify:track:35QZaWQRkmnAVqBF1TLCxQ"}}],"limit":10,"next":"https://api.spotify.com/v1/me/tracks?offset=10&limit=10","offset":0,"previous":null,"total":666}